{
  "questions": [
    {
      "id": "medical_history",
      "header": "Medical History",
      "question": "Do you have history of any illnesses?",
      "question_type": "multi_select",
      "required": false,
      "options": [
        "Diabetes",
        "Hypertension",
        "Coronary Artery Disease (Heart Attack)",
        "Stroke",
        "Cancer",
        "Kidney failure (On dialysis)",
        "Asthma",
        {
          "title": "Other illnesses",
          "type": "freeform"
        }
      ]
    },
    {
      "id": "surgical_history",
      "header": "Surgical History",
      "question": "Do you have any history of major surgery previously?",
      "question_type": "multi_select",
      "required": false,
      "options": [
        "Heart surgery (drop down-stents, bypass surgery, pacemaker, valve repair)",
        "Abdominal surgery \"Abdominal surgery",
        "Brain and spine surgery",
        "Cancer surgeries",
        {
          "title": "Other surgeries",
          "type": "freeform"
        }
      ]
    },
    {
      "id": "drug_history",
      "header": "Drug History",
      "question": "Are you taking any of the following medications?",
      "question_type": "multi_select",
      "required": false,
      "options": [
        "Hypertension medication",
        "Diabetes medication",
        "Thyroid Medication",
        "Cholesterol medication",
        "Blood thinners",
        "Steroids",
        "Seizure Medication",
        {
          "title": "Others",
          "type": "freeform"
        }
      ]
    }
  ]
}
